<svg width="18" height="24" viewBox="0 0 18 24" fill="none" xmlns="http://www.w3.org/2000/svg">
<path d="M7.49254 16.6084L7.19026 19.4448C7.17531 19.5859 7.21879 19.7275 7.30958 19.8335C7.40036 19.9395 7.53046 20 7.66662 20H9.5833C9.71946 20 9.84955 19.9395 9.94034 19.8335C10.0311 19.7276 10.0747 19.586 10.0596 19.4448L9.75737 16.6084C10.2482 16.2359 10.5416 15.6465 10.5416 15C10.5416 13.897 9.68204 13 8.62493 13C7.56783 13 6.70825 13.897 6.70825 15C6.70825 15.6465 7.00168 16.2359 7.49254 16.6084ZM8.62493 14C9.15322 14 9.58325 14.4488 9.58325 15C9.58325 15.3833 9.37455 15.7266 9.03858 15.8965C8.85561 15.9893 8.74847 16.1914 8.77093 16.4019L9.04796 19H8.20195L8.47898 16.4019C8.50144 16.1914 8.39431 15.9893 8.21134 15.8965C7.87537 15.7266 7.66666 15.3833 7.66666 15C7.66662 14.4488 8.09665 14 8.62493 14Z" fill="url(#paint0_linear)"/>
<path d="M16.7708 9H15.3333V6.99998C15.3333 3.14016 12.324 0 8.625 0C4.92595 0 1.91668 3.14016 1.91668 6.99998V9H0.479182C0.214322 9 0 9.22364 0 9.50002V22C0 23.103 0.85958 24 1.91668 24H15.3334C16.3904 24 17.25 23.103 17.25 22V9.50002C17.25 9.22364 17.0357 9 16.7708 9ZM2.875 6.99998C2.875 3.69141 5.45428 0.999984 8.625 0.999984C11.7957 0.999984 14.375 3.69141 14.375 6.99998V9H13.4167V6.99998C13.4167 4.24312 11.267 1.99997 8.625 1.99997C5.98301 1.99997 3.83332 4.24317 3.83332 6.99998V9H2.875V6.99998ZM12.4583 6.99998V9H4.79168V6.99998C4.79168 4.79442 6.51134 3 8.625 3C10.7387 3 12.4583 4.79442 12.4583 6.99998ZM16.2917 22C16.2917 22.5512 15.8616 23 15.3334 23H1.91668C1.3884 23 0.958363 22.5512 0.958363 22V9.99998H16.2917V22Z" fill="url(#paint1_linear)"/>
<defs>
<linearGradient id="paint0_linear" x1="8.625" y1="0" x2="8.625" y2="24" gradientUnits="userSpaceOnUse">
<stop stop-color="#B7D602"/>
<stop offset="1" stop-color="#68C316"/>
</linearGradient>
<linearGradient id="paint1_linear" x1="8.625" y1="0" x2="8.625" y2="24" gradientUnits="userSpaceOnUse">
<stop stop-color="#B7D602"/>
<stop offset="1" stop-color="#68C316"/>
</linearGradient>
</defs>
</svg>
