<svg width="40" height="70" viewBox="0 0 40 70" fill="none" xmlns="http://www.w3.org/2000/svg">
<g clip-path="url(#clip0)">
<path d="M39.5839 33.8166C39.5839 44.4005 31.0039 52.9804 20.42 52.9804C15.2819 52.9804 6.85086 65.1055 -0.464844 69.504V-2.11694C6.71496 1.25096 14.9479 14.6528 20.42 14.6528C31.0039 14.6528 39.5839 23.2327 39.5839 33.8166Z" fill="url(#paint0_linear)"/>
<path d="M25.3904 45.39C24.6455 45.39 23.7459 45.189 22.7566 44.7869C20.5876 43.9064 18.2277 42.166 16.1117 39.8875C13.9951 37.6083 12.379 35.0665 11.5606 32.7309C10.8169 30.6073 10.8151 28.8643 11.5564 28.0668C11.663 27.952 11.7714 27.8288 11.8834 27.7017C12.5596 26.9359 13.3237 26.0742 14.3366 26.1131C15.0345 26.1442 15.7107 26.6111 16.4032 27.539C18.4493 30.2792 17.5268 31.2557 16.4592 32.3878L16.2707 32.5889C16.0961 32.7769 15.7661 33.6477 18.8359 36.9534C19.8379 38.0323 20.6924 38.8221 21.3752 39.3C21.8052 39.6009 22.5741 40.0561 22.8896 39.7163L23.0793 39.5101C24.1295 38.363 25.0363 37.3729 27.5793 39.5743C28.441 40.32 28.8739 41.0475 28.9028 41.8003C28.9444 42.8903 28.1381 43.7151 27.4263 44.4426C27.3089 44.5632 27.1945 44.6799 27.0879 44.7941C26.72 45.1909 26.1317 45.39 25.3904 45.39ZM14.2643 26.7602C13.5447 26.7602 12.895 27.4968 12.3199 28.1485C12.2043 28.2795 12.0923 28.4065 11.9821 28.5252C11.4299 29.1192 11.4859 30.6799 12.1242 32.5026C12.9131 34.7539 14.4805 37.214 16.5381 39.4297C18.595 41.644 20.8784 43.3319 22.9697 44.1807C24.6624 44.8693 26.1118 44.9276 26.6628 44.3343C26.773 44.2157 26.891 44.0951 27.0126 43.9712C27.6311 43.3384 28.3326 42.6212 28.3019 41.8256C28.2808 41.279 27.9111 40.6909 27.2029 40.0781C25.0839 38.2431 24.4914 38.8908 23.5087 39.964L23.316 40.1734C22.8463 40.6798 22.0834 40.5677 21.0476 39.8427C20.3293 39.3396 19.4417 38.5212 18.4108 37.4105C15.863 34.6677 15.0483 32.9889 15.8456 32.1285L16.0377 31.9242C17.0367 30.866 17.6394 30.2273 15.9347 27.9442C15.3645 27.1823 14.8189 26.7842 14.3113 26.7609C14.2956 26.7602 14.28 26.7602 14.2643 26.7602Z" fill="white" stroke="white" stroke-width="0.5"/>
</g>
<defs>
<linearGradient id="paint0_linear" x1="19.5596" y1="-2.11694" x2="19.5596" y2="69.504" gradientUnits="userSpaceOnUse">
<stop stop-color="#B7D602"/>
<stop offset="1" stop-color="#68C316"/>
</linearGradient>
<clipPath id="clip0">
<rect width="40" height="70" fill="white"/>
</clipPath>
</defs>
</svg>
