<svg width="38" height="35" viewBox="0 0 38 35" fill="none" xmlns="http://www.w3.org/2000/svg">
<path d="M19 1.61804L22.7902 13.2832L22.9025 13.6287H23.2658H35.5312L25.6083 20.8381L25.3144 21.0517L25.4266 21.3972L29.2169 33.0623L19.2939 25.8528L19 25.6393L18.7061 25.8528L8.78314 33.0623L12.5734 21.3972L12.6856 21.0517L12.3917 20.8381L2.46877 13.6287H14.7342H15.0975L15.2098 13.2832L19 1.61804Z" stroke="#8C8C8C"/>
</svg>
