<svg width="26" height="26" viewBox="0 0 26 26" fill="none" xmlns="http://www.w3.org/2000/svg">
<g clip-path="url(#clip0)">
<path d="M9.28031 8.92849C8.6578 8.30394 7.81211 7.95328 6.93032 7.9541C5.09584 7.95397 3.60853 9.441 3.6084 11.2755C3.60826 13.11 5.09529 14.5973 6.92977 14.5974C8.76425 14.5975 10.2516 13.1105 10.2517 11.276C10.2518 10.3957 9.9024 9.5514 9.28031 8.92849ZM8.60888 12.957V12.9543C7.6813 13.8813 6.17783 13.8809 5.25073 12.9533C4.32363 12.0256 4.32411 10.5222 5.25175 9.59514C6.17933 8.66811 7.68281 8.66852 8.6099 9.59616C9.05513 10.0417 9.30514 10.6459 9.30487 11.2757C9.30624 11.9066 9.05568 12.5118 8.60888 12.957Z" fill="url(#paint0_linear)"/>
<path d="M7.10729 15.6865H6.75247C3.02646 15.697 0.00900693 18.7157 0 22.4417V22.9194C0 23.1816 0.212618 23.3943 0.474911 23.3943H13.3848C13.6471 23.3943 13.8598 23.1816 13.8598 22.9194V22.4417C13.8492 18.7164 10.8327 15.6985 7.10729 15.6865ZM12.9127 22.4444H0.947092C0.954598 19.2409 3.54893 16.6454 6.75247 16.6363H7.10729C10.3098 16.6454 12.9037 19.2392 12.9127 22.4417V22.4444Z" fill="url(#paint1_linear)"/>
<path d="M21.923 7.05316C21.8618 6.99537 21.7863 6.95484 21.7044 6.93573L21.7071 6.93846L19.8785 6.51541L18.915 4.91327C18.7851 4.68714 18.4964 4.60921 18.2703 4.73913C18.1978 4.78075 18.1378 4.84087 18.0962 4.91327L17.13 6.52087L15.3013 6.94392C15.0471 7.00219 14.8883 7.25554 14.9466 7.50972C14.9639 7.58512 14.9995 7.65519 15.0502 7.7136L16.2811 9.12469L16.1174 10.997C16.0936 11.2567 16.2848 11.4865 16.5445 11.5104C16.6222 11.5175 16.7006 11.5052 16.7724 11.4747L18.5028 10.7405L20.1923 11.4556C20.424 11.5785 20.7115 11.4904 20.8345 11.2588C20.8771 11.1785 20.8958 11.0876 20.8883 10.997L20.7246 9.12469L21.9419 7.72452C22.1221 7.53394 22.1136 7.23337 21.923 7.05316ZM19.8812 8.66069C19.7973 8.7569 19.756 8.88286 19.7665 9.01005L19.8785 10.2956L18.6884 9.79065C18.5715 9.74152 18.4397 9.74152 18.3227 9.79065L17.1327 10.2956L17.2446 9.01005C17.2548 8.86922 17.2018 8.73118 17.1 8.6334L16.2811 7.68631L17.5367 7.39426C17.6693 7.36445 17.7827 7.27895 17.8478 7.15954L18.5028 6.06779L19.1688 7.17319C19.2349 7.28393 19.3434 7.36281 19.469 7.39154L20.7246 7.68358L19.8812 8.66069Z" fill="url(#paint2_linear)"/>
<path d="M23.759 4.21742C22.222 3.14075 20.3841 2.5772 18.5077 2.60709C16.6314 2.5772 14.7935 3.14075 13.2564 4.21742C11.8644 5.24366 11.002 6.67385 11.002 8.26235C11.0045 8.98263 11.1815 9.69151 11.5178 10.3285C11.8169 10.8954 12.2122 11.4061 12.686 11.8378L11.4932 14.3106C11.3845 14.5477 11.4887 14.828 11.7257 14.9366C11.8681 15.0018 12.0335 14.9923 12.1674 14.9111L14.8968 13.2216C15.418 13.4345 15.9581 13.5981 16.5098 13.7102C17.1628 13.8443 17.8276 13.9119 18.4941 13.9121C20.3705 13.942 22.2083 13.3785 23.7454 12.3018C25.1374 11.2756 25.9999 9.84538 25.9999 8.25689C25.9999 6.66839 25.151 5.24366 23.759 4.21742ZM23.1968 11.5431H23.1995C21.8246 12.5 20.1827 12.9986 18.5077 12.9678C17.9046 12.9694 17.3029 12.9099 16.7118 12.7904C16.1485 12.6743 15.5994 12.4977 15.0742 12.2636C14.9258 12.197 14.7536 12.2114 14.6184 12.3018L13.049 13.2735L13.6931 11.9088C13.7848 11.708 13.7259 11.4705 13.5512 11.3356C13.0611 10.9388 12.6556 10.4479 12.3585 9.89178C12.0923 9.38692 11.9527 8.82494 11.9518 8.25416C11.9518 6.98227 12.6641 5.82229 13.8159 4.97891C15.1904 4.02343 16.8313 3.52579 18.505 3.55691C20.1799 3.52607 21.8219 4.02466 23.1968 4.98164C24.3486 5.83048 25.061 6.99046 25.061 8.25689C25.061 9.52332 24.3486 10.6942 23.1968 11.5431Z" fill="url(#paint3_linear)"/>
</g>
<defs>
<linearGradient id="paint0_linear" x1="6.93004" y1="7.9541" x2="6.93004" y2="14.5974" gradientUnits="userSpaceOnUse">
<stop stop-color="#B7D602"/>
<stop offset="1" stop-color="#68C316"/>
</linearGradient>
<linearGradient id="paint1_linear" x1="6.92988" y1="15.6865" x2="6.92988" y2="23.3943" gradientUnits="userSpaceOnUse">
<stop stop-color="#B7D602"/>
<stop offset="1" stop-color="#68C316"/>
</linearGradient>
<linearGradient id="paint2_linear" x1="18.5031" y1="4.67627" x2="18.5031" y2="11.5123" gradientUnits="userSpaceOnUse">
<stop stop-color="#B7D602"/>
<stop offset="1" stop-color="#68C316"/>
</linearGradient>
<linearGradient id="paint3_linear" x1="18.5009" y1="2.60596" x2="18.5009" y2="14.9796" gradientUnits="userSpaceOnUse">
<stop stop-color="#B7D602"/>
<stop offset="1" stop-color="#68C316"/>
</linearGradient>
<clipPath id="clip0">
<rect width="26" height="26" fill="white"/>
</clipPath>
</defs>
</svg>
