<svg width="19" height="19" viewBox="0 0 19 19" fill="none" xmlns="http://www.w3.org/2000/svg">
<path d="M9.51865 10.6128C12.3086 10.6128 14.5715 8.3498 14.5715 5.55988C14.5715 2.76995 12.3086 0.522461 9.51865 0.522461C6.72872 0.522461 4.46575 2.78543 4.46575 5.55988C4.46575 8.33432 6.72869 10.6128 9.51865 10.6128ZM9.51865 1.83994C11.5646 1.83994 13.2386 3.5139 13.2386 5.55988C13.2386 7.60585 11.5646 9.27978 9.51865 9.27978C7.4727 9.27978 5.79871 7.60582 5.79871 5.55984C5.79871 3.51386 7.47267 1.83994 9.51865 1.83994Z" fill="url(#paint0_linear)"/>
<path d="M0.776831 18.5021H18.3225C18.6945 18.5021 18.989 18.2076 18.989 17.8356C18.989 14.3482 16.1525 11.4962 12.6496 11.4962H6.44973C2.9623 11.4962 0.110352 14.3327 0.110352 17.8356C0.110352 18.2076 0.404841 18.5021 0.776831 18.5021ZM6.44973 12.8292H12.6496C15.1915 12.8292 17.284 14.7202 17.6095 17.1691H1.48982C1.8153 14.7357 3.90779 12.8292 6.44973 12.8292Z" fill="url(#paint1_linear)"/>
<defs>
<linearGradient id="paint0_linear" x1="9.54966" y1="0.522461" x2="9.54966" y2="18.5021" gradientUnits="userSpaceOnUse">
<stop stop-color="#B7D602"/>
<stop offset="1" stop-color="#68C316"/>
</linearGradient>
<linearGradient id="paint1_linear" x1="9.54966" y1="0.522461" x2="9.54966" y2="18.5021" gradientUnits="userSpaceOnUse">
<stop stop-color="#B7D602"/>
<stop offset="1" stop-color="#68C316"/>
</linearGradient>
</defs>
</svg>
